{
    "file": "EMPFlow.json",
    "variables": {
        "jet": {
            "uints": ["testjetFoldHash", "testjetFoldHash_noHits"]
        }
    },
    "ca_blocks": [
        {"block": "FoldHashDecorator", "prefix": "test"}
    ]
}
