{
    "jet_collection": "AntiKt4EMPFlowJets",
    "calibration": {
        "file": "fragments/pflow-calibration.json"
    },
    "selection": {
        "file": "fragments/pflow-selection.json"
    },
    "vertex_collection": "PrimaryVertices",
    "truth_vertex_collection": "TruthPrimaryVertices",
    "btagging_link": "btaggingLink",
    "variables": {
        "jet" : {
            "ints": [
                "HadronConeExclTruthLabelID",
                "HadronConeExclExtendedTruthLabelID",
                "HadronGhostTruthLabelID",
                "HadronGhostExtendedTruthLabelID",
                "PartonTruthLabelID"
            ],
            "floats": [
                "pt",
                "ptFromTruthJet",
                "PartonTruthLabelPt",
                "mass"
            ],
            "halves": [
                "eta",
                "phi",
                "PartonTruthLabelDR"
            ],
            "chars": [
                "isJvtPU",
                "isJvtHS",
                "matchedToTruthJet"
            ]
        },
        "btagging" : {
            "halves": [
                "GN2v01_pb",
                "GN2v01_pc",
                "GN2v01_pu",
                "GN2v01_ptau",
                "DL1dv01_pu",
                "DL1dv01_pc",
                "DL1dv01_pb",
                "eta_btagJes"
            ],
            "floats": [
                "pt_btagJes"
            ]
        },
        "event" : {
            "customs" : [
                "eventNumber"
            ]
        },
        "eventwise": {
            "customs": [
                "nJets"
            ],
            "compressed": [
                "primaryVertexToBeamDisplacementX",
                "primaryVertexToBeamDisplacementY",
                "primaryVertexToBeamDisplacementZ",
                "primaryVertexToTruthVertexDisplacementX",
                "primaryVertexToTruthVertexDisplacementY",
                "primaryVertexToTruthVertexDisplacementZ"
            ]
        },
        "default_mapping": {
            "file": "fragments/default-mapping.json"
        }
    },
    "decorate": {
        "btag_jes": true,
        "track_sv_info": true,
        "lepton_decay_label": true
    },
    "tracks": [
        {
            "n_to_save": 40,
            "selection": {
                "file": "fragments/r22default-track-cuts.json"
            },
            "sort_order": "d0_significance",
            "btagging_link": "btaggingLink",
            "input_name": "BTagTrackToJetAssociator",
            "output_name": "tracks",
            "variables": {
                "uchars": [
                    "numberOfInnermostPixelLayerHits",
                    "numberOfNextToInnermostPixelLayerHits",
                    "numberOfInnermostPixelLayerSharedHits",
                    "numberOfInnermostPixelLayerSplitHits",
                    "numberOfPixelHits",
                    "numberOfPixelSharedHits",
                    "numberOfPixelSplitHits",
                    "numberOfSCTHits",
                    "numberOfSCTSharedHits"
                ],
                "floats": [
                    "qOverP"
                ],
                "halves": [
                    "theta"
                ],
                "customs": [
                    "pt",
                    "ptfrac",
                    "deta",
                    "qOverPUncertainty"
                ],
                "half_precision_customs": [
                    "d0",
                    "z0SinTheta",
                    "d0Uncertainty",
                    "z0SinThetaUncertainty",
                    "phiUncertainty",
                    "thetaUncertainty",
                    "dphi",
                    "z0RelativeToBeamspot",
                    "z0RelativeToBeamspotUncertainty",
                    "d0RelativeToBeamspot",
                    "d0RelativeToBeamspotUncertainty",
                    "lifetimeSignedD0",
                    "lifetimeSignedZ0SinTheta",
                    "lifetimeSignedD0Significance",
                    "lifetimeSignedZ0SinThetaSignificance"
                ],
                "ints": [
                    "ftagTruthParentBarcode",
                    "ftagTruthOriginLabel",
                    "ftagTruthVertexIndex"
                ],
                "chars": [
                    "GN2v01_trackOrigin",
                    "GN2v01_vertexIndex"
                ]
            },
            "ip_prefix": "btagIp_"
        }
    ],
    "ca_blocks": [
        {
            "block": "GNNAuxTaskMapper",
            "btagging_container": "BTagging_AntiKt4EMPFlow",
            "track_container": "InDetTrackParticles",
            "track_links": "GN2v01_TrackLinks",
            "track_aux_tasks": {
                "GN2v01_VertexIndex": "GN2v01_vertexIndex",
                "GN2v01_TrackOrigin": "GN2v01_trackOrigin"
            }
        },
        {
            "block": "JetMatcher",
            "source_jets": [
                "AntiKt4TruthJets"
            ],
            "source_name": "TruthJet",
            "floats_to_copy": [
                "pt"
            ],
            "pt_priority_with_delta_r": 0.3
        }
    ],
    "truths": [
        {
            "file": "fragments/overlap-leptons-TRUTH3.json"
        },
        {
            "association": {
                "file": "fragments/baseline-truth-kinematics.json",
                "particles": "promptLepton"
            },
            "decorate_summary": true
        },
        {
            "association": {
                "file": "fragments/baseline-truth-kinematics.json",
                "particles": "truth_hadrons"
            },
            "output": {
                "n_to_save": 5,
                "sort_order": "pt"
            },
            "vars": {
                "ints" : [
                    "pdgId",
                    "barcode",
                    "ftagTruthParentBarcode"
                ],
                "floats" : [
                    "pt",
                    "mass",
                    "deta",
                    "dphi",
                    "decayVertexDPhi",
                    "decayVertexZ",
                    "Lxy"
                ]
            }
        }
    ]
}
